Relatorio6/simulation/qsim/projeto6.msim.vcd
$comment
	File created using the following command:
		vcd file projeto6.msim.vcd -direction
$end
$date
	Fri Dec 13 09:37:38 2024
$end
$version
	ModelSim Version 10.5b
$end
$timescale
	1ps
$end

$scope module projeto6_vhd_vec_tst $end
$var wire 1 ! entrada1 [3] $end
$var wire 1 " entrada1 [2] $end
$var wire 1 # entrada1 [1] $end
$var wire 1 $ entrada1 [0] $end
$var wire 1 % entrada2 [3] $end
$var wire 1 & entrada2 [2] $end
$var wire 1 ' entrada2 [1] $end
$var wire 1 ( entrada2 [0] $end
$var wire 1 ) entrada3 [3] $end
$var wire 1 * entrada3 [2] $end
$var wire 1 + entrada3 [1] $end
$var wire 1 , entrada3 [0] $end
$var wire 1 - entrada4 [3] $end
$var wire 1 . entrada4 [2] $end
$var wire 1 / entrada4 [1] $end
$var wire 1 0 entrada4 [0] $end
$var wire 1 1 max_val [3] $end
$var wire 1 2 max_val [2] $end
$var wire 1 3 max_val [1] $end
$var wire 1 4 max_val [0] $end
$var wire 1 5 min_val [3] $end
$var wire 1 6 min_val [2] $end
$var wire 1 7 min_val [1] $end
$var wire 1 8 min_val [0] $end

$scope module i1 $end
$var wire 1 9 gnd $end
$var wire 1 : vcc $end
$var wire 1 ; unknown $end
$var wire 1 < devoe $end
$var wire 1 = devclrn $end
$var wire 1 > devpor $end
$var wire 1 ? ww_devoe $end
$var wire 1 @ ww_devclrn $end
$var wire 1 A ww_devpor $end
$var wire 1 B ww_entrada1 [3] $end
$var wire 1 C ww_entrada1 [2] $end
$var wire 1 D ww_entrada1 [1] $end
$var wire 1 E ww_entrada1 [0] $end
$var wire 1 F ww_entrada2 [3] $end
$var wire 1 G ww_entrada2 [2] $end
$var wire 1 H ww_entrada2 [1] $end
$var wire 1 I ww_entrada2 [0] $end
$var wire 1 J ww_entrada3 [3] $end
$var wire 1 K ww_entrada3 [2] $end
$var wire 1 L ww_entrada3 [1] $end
$var wire 1 M ww_entrada3 [0] $end
$var wire 1 N ww_entrada4 [3] $end
$var wire 1 O ww_entrada4 [2] $end
$var wire 1 P ww_entrada4 [1] $end
$var wire 1 Q ww_entrada4 [0] $end
$var wire 1 R ww_min_val [3] $end
$var wire 1 S ww_min_val [2] $end
$var wire 1 T ww_min_val [1] $end
$var wire 1 U ww_min_val [0] $end
$var wire 1 V ww_max_val [3] $end
$var wire 1 W ww_max_val [2] $end
$var wire 1 X ww_max_val [1] $end
$var wire 1 Y ww_max_val [0] $end
$var wire 1 Z \~QUARTUS_CREATED_ADC1~_CHSEL_bus\ [4] $end
$var wire 1 [ \~QUARTUS_CREATED_ADC1~_CHSEL_bus\ [3] $end
$var wire 1 \ \~QUARTUS_CREATED_ADC1~_CHSEL_bus\ [2] $end
$var wire 1 ] \~QUARTUS_CREATED_ADC1~_CHSEL_bus\ [1] $end
$var wire 1 ^ \~QUARTUS_CREATED_ADC1~_CHSEL_bus\ [0] $end
$var wire 1 _ \~QUARTUS_CREATED_ADC2~_CHSEL_bus\ [4] $end
$var wire 1 ` \~QUARTUS_CREATED_ADC2~_CHSEL_bus\ [3] $end
$var wire 1 a \~QUARTUS_CREATED_ADC2~_CHSEL_bus\ [2] $end
$var wire 1 b \~QUARTUS_CREATED_ADC2~_CHSEL_bus\ [1] $end
$var wire 1 c \~QUARTUS_CREATED_ADC2~_CHSEL_bus\ [0] $end
$var wire 1 d \~QUARTUS_CREATED_GND~I_combout\ $end
$var wire 1 e \~QUARTUS_CREATED_UNVM~~busy\ $end
$var wire 1 f \~QUARTUS_CREATED_ADC1~~eoc\ $end
$var wire 1 g \~QUARTUS_CREATED_ADC2~~eoc\ $end
$var wire 1 h \min_val[0]~output_o\ $end
$var wire 1 i \min_val[1]~output_o\ $end
$var wire 1 j \min_val[2]~output_o\ $end
$var wire 1 k \min_val[3]~output_o\ $end
$var wire 1 l \max_val[0]~output_o\ $end
$var wire 1 m \max_val[1]~output_o\ $end
$var wire 1 n \max_val[2]~output_o\ $end
$var wire 1 o \max_val[3]~output_o\ $end
$var wire 1 p \entrada4[3]~input_o\ $end
$var wire 1 q \entrada4[2]~input_o\ $end
$var wire 1 r \entrada4[1]~input_o\ $end
$var wire 1 s \entrada4[0]~input_o\ $end
$var wire 1 t \entrada3[1]~input_o\ $end
$var wire 1 u \entrada3[2]~input_o\ $end
$var wire 1 v \entrada2[2]~input_o\ $end
$var wire 1 w \entrada1[3]~input_o\ $end
$var wire 1 x \entrada1[2]~input_o\ $end
$var wire 1 y \entrada2[3]~input_o\ $end
$var wire 1 z \LessThan2~2_combout\ $end
$var wire 1 { \entrada2[1]~input_o\ $end
$var wire 1 | \entrada1[1]~input_o\ $end
$var wire 1 } \entrada1[0]~input_o\ $end
$var wire 1 ~ \entrada2[0]~input_o\ $end
$var wire 1 !! \LessThan2~1_combout\ $end
$var wire 1 "! \LessThan2~0_combout\ $end
$var wire 1 #! \LessThan2~3_combout\ $end
$var wire 1 $! \temp_min~6_combout\ $end
$var wire 1 %! \entrada3[0]~input_o\ $end
$var wire 1 &! \temp_min~9_combout\ $end
$var wire 1 '! \LessThan4~0_combout\ $end
$var wire 1 (! \temp_min~8_combout\ $end
$var wire 1 )! \LessThan4~1_combout\ $end
$var wire 1 *! \entrada3[3]~input_o\ $end
$var wire 1 +! \temp_min~7_combout\ $end
$var wire 1 ,! \LessThan4~2_combout\ $end
$var wire 1 -! \temp_min~12_combout\ $end
$var wire 1 .! \temp_min~10_combout\ $end
$var wire 1 /! \LessThan6~0_combout\ $end
$var wire 1 0! \temp_min~11_combout\ $end
$var wire 1 1! \LessThan6~1_combout\ $end
$var wire 1 2! \temp_min~17_combout\ $end
$var wire 1 3! \LessThan6~2_combout\ $end
$var wire 1 4! \temp_min~13_combout\ $end
$var wire 1 5! \temp_min~14_combout\ $end
$var wire 1 6! \temp_min~15_combout\ $end
$var wire 1 7! \temp_min~16_combout\ $end
$var wire 1 8! \LessThan3~1_combout\ $end
$var wire 1 9! \LessThan3~0_combout\ $end
$var wire 1 :! \LessThan3~2_combout\ $end
$var wire 1 ;! \temp_max~9_combout\ $end
$var wire 1 <! \temp_max~6_combout\ $end
$var wire 1 =! \LessThan5~0_combout\ $end
$var wire 1 >! \temp_max~7_combout\ $end
$var wire 1 ?! \LessThan5~1_combout\ $end
$var wire 1 @! \temp_max~8_combout\ $end
$var wire 1 A! \LessThan5~2_combout\ $end
$var wire 1 B! \temp_max~11_combout\ $end
$var wire 1 C! \temp_max~12_combout\ $end
$var wire 1 D! \temp_max~10_combout\ $end
$var wire 1 E! \LessThan7~0_combout\ $end
$var wire 1 F! \LessThan7~1_combout\ $end
$var wire 1 G! \temp_max~17_combout\ $end
$var wire 1 H! \LessThan7~2_combout\ $end
$var wire 1 I! \temp_max~13_combout\ $end
$var wire 1 J! \temp_max~14_combout\ $end
$var wire 1 K! \temp_max~15_combout\ $end
$var wire 1 L! \temp_max~16_combout\ $end
$upscope $end
$upscope $end
$enddefinitions $end
#0
$dumpvars
09
1:
x;
1<
1=
1>
1?
1@
1A
0d
ze
zf
zg
0h
0i
0j
0k
1l
1m
0n
1o
1p
0q
1r
1s
1t
0u
0v
0w
0x
1y
0z
0{
0|
0}
0~
0!!
0"!
0#!
0$!
1%!
0&!
0'!
0(!
0)!
1*!
0+!
0,!
0-!
0.!
0/!
00!
01!
02!
03!
04!
05!
06!
07!
08!
19!
1:!
0;!
0<!
1=!
0>!
1?!
1@!
1A!
0B!
1C!
1D!
0E!
0F!
1G!
0H!
1I!
1J!
0K!
1L!
0!
0"
0#
0$
1%
0&
0'
0(
1)
0*
1+
1,
1-
0.
1/
10
05
06
07
08
11
02
13
14
0B
0C
0D
0E
1F
0G
0H
0I
1J
0K
1L
1M
1N
0O
1P
1Q
0R
0S
0T
0U
1V
0W
1X
1Y
0Z
0[
0\
0]
0^
0_
0`
0a
0b
0c
$end
#50000
1!
1"
1$
1&
1'
0)
1*
0+
0,
1.
0/
1E
1C
1B
1H
1G
0M
0L
1K
0J
0P
1O
1q
0r
0*!
1u
0t
0%!
1v
1{
1w
1x
1}
1$!
1+!
18!
1;!
1z
1(!
09!
1>!
0D!
0=!
0C!
1B!
0A!
1F!
1H!
0F!
1K!
0J!
1E!
0I!
0?!
10!
1C!
1,!
1'!
1.!
0l
0m
1n
14!
1)!
0.!
0E!
16!
1F!
0H!
1I!
0Y
0X
1W
1l
1j
1h
0I!
1J!
1H!
0F!
04!
04
03
12
1Y
1S
1U
0h
1m
0l
0H!
1I!
0J!
14
18
16
0U
1X
0Y
0m
1l
0I!
1J!
08
04
13
0X
1Y
1m
0l
14
03
1X
0Y
04
13
#100000
0"
0$
0'
1)
1+
1,
0.
1/
0%
0-
00
0E
0C
0H
0F
1M
1L
1J
0Q
1P
0O
0N
0p
0q
1r
0s
1*!
1t
1%!
0y
0{
0x
0}
0$!
0(!
08!
0;!
0z
1"!
0@!
1.!
0'!
1-!
1=!
12!
11!
13!
1?!
15!
1/!
14!
1A!
1#!
0C!
0:!
0)!
1h
1i
0,!
0>!
1@!
1E!
0J!
1(!
0+!
02!
1C!
1D!
04!
06!
1U
1T
0j
0h
0m
1I!
0E!
1J!
0-!
0.!
18
17
0S
0U
0X
1m
1l
0/!
08
06
03
1X
1Y
14
13
#150000
1'
0)
1.
0/
1%
1-
0&
1(
1I
1H
0G
1F
0J
0P
1O
1N
1p
1q
0r
0*!
1y
0v
1{
1~
1$!
1&!
18!
0(!
1z
0"!
1+!
0A!
05!
01!
16!
03!
1j
0i
0B!
0C!
0D!
1,!
0#!
00!
1:!
1-!
1.!
1S
0T
14!
1/!
15!
1;!
1<!
06!
0$!
0&!
10!
0I!
0J!
1F!
0K!
07
16
0n
0m
0l
0j
1i
1h
1H!
16!
1D!
0=!
1C!
11!
0W
0X
0Y
0S
1T
1U
1j
1K!
04
03
02
18
17
06
1S
1n
16
1W
12
#200000
1)
0.
0-
0(
1"
1$
10
1J
1Q
0O
0N
0I
1E
1C
1x
1}
0~
0p
0q
1s
1*!
0,!
12!
1A!
1I!
0F!
0K!
13!
0H!
1$!
0<!
0z
1"!
1(!
0n
1l
1#!
0:!
1=!
1J!
05!
06!
1B!
0-!
0W
1Y
0j
0i
1m
0/!
1K!
0;!
1<!
1>!
0$!
1&!
0(!
14
02
0S
0T
1X
1n
00!
1-!
0.!
07
06
13
1W
1/!
01!
12
11!
#250000
1(
00
1/
0+
0!
0*
1#
1I
0Q
1P
0L
0K
1D
0B
0w
1|
0u
0t
1r
0s
1~
1$!
04!
0/!
15!
1'!
0=!
0C!
0?!
0B!
08!
1;!
0"!
19!
0@!
1i
0h
0#!
1:!
0K!
1E!
0J!
1)!
01!
1.!
1T
0U
0m
0n
1/!
1,!
1F!
0>!
1@!
1(!
0+!
02!
08
17
0X
0W
03!
0,!
0A!
0-!
11!
03
02
13!
0/!
1C!
1-!
10!
14!
05!
0i
1h
1/!
0E!
1J!
04!
15!
0T
1U
1i
0h
1m
0F!
18
07
1T
0U
1X
08
17
13
#300000
10
0/
1+
0)
1.
0"
0$
1&
0,
1Q
0P
1O
0M
1L
0J
0E
0C
1G
1v
0x
0}
0*!
1t
0%!
1q
0r
1s
14!
05!
16!
1F!
1,!
0$!
18!
0(!
1>!
1j
0i
1h
1B!
0'!
0.!
00!
1S
0T
1U
01!
0)!
0F!
1K!
18
07
16
1n
0,!
03!
1W
04!
15!
06!
12
0j
1i
0h
0S
1T
0U
08
17
06
#350000
0+
1"
1,
0'
1M
0L
1C
0H
0{
1x
0t
1%!
1'!
1(!
1!!
08!
0;!
0C!
10!
1)!
1,!
11!
16!
0J!
0m
1j
13!
0-!
1.!
00!
0X
1S
01!
0/!
14!
05!
03
16
0i
1h
03!
0T
1U
06!
18
07
0j
0S
06
#400000
0"
0,
1'
00
1/
0(
0#
0D
0C
0M
0I
1H
0Q
1P
1r
0s
1{
0~
0%!
0x
0|
0(!
0.!
0<!
0!!
0&!
18!
1;!
1E!
1F!
1C!
0'!
0D!
04!
0h
0I!
0)!
0E!
1J!
0U
1m
0l
0F!
0,!
08
1X
0Y
04
13
#450000
1,
1(
1)
1$
0&
1!
1*
0%
1M
1K
1J
1I
0G
0F
1E
1B
1w
1}
0y
0v
1~
1*!
1u
1%!
0>!
1$!
1<!
1"!
1+!
12!
09!
0@!
1A!
0:!
13!
1#!
1D!
1.!
1?!
0B!
1F!
0K!
1I!
1&!
0+!
02!
15!
16!
0;!
1@!
1B!
0C!
1j
1i
1l
0n
1E!
0J!
0F!
1K!
03!
1'!
1-!
1S
1T
1Y
0W
1n
0m
1/!
14!
06!
1F!
17
16
14
02
1W
0X
0j
1h
03
12
0S
1U
18
06
#500000
0$
0.
1-
0E
0O
1N
1p
0q
0}
0<!
11!
0F!
1H!
0I!
1J!
0K!
0H!
1=!
0n
1m
0l
1I!
0J!
1K!
0W
1X
0Y
1n
0m
1l
04
13
02
1W
0X
1Y
14
03
12
#550000
1.
0!
0*
10
0/
1#
1Q
0P
1O
1D
0B
0K
0u
0w
1|
1q
0r
1s
0E!
01!
1F!
1;!
1z
0"!
0@!
1)!
0B!
0K!
0#!
1:!
0=!
1H!
0n
1K!
0?!
1<!
0$!
0W
1n
0.!
02
1W
04!
12
0h
0U
08
#600000
1!
0,
0(
0)
1&
1%
0'
1B
0M
0J
0I
0H
1G
1F
1y
1v
0{
0~
0*!
0%!
1w
0D!
1,!
0A!
0<!
1!!
08!
0;!
1>!
0z
1+!
19!
1@!
1B!
0-!
1E!
0/!
05!
0i
0T
07
#650000
1(
1)
1'
1*
0#
1$
1"
1+
1I
1H
1L
1K
1J
1E
0D
1C
1x
0|
1}
1*!
1u
1t
1{
1~
0'!
1-!
1=!
0)!
10!
12!
1$!
1<!
0!!
0&!
18!
1;!
1z
1(!
09!
1C!
0=!
1D!
17!
16!
0,!
1?!
1/!
15!
1i
1j
1k
11!
1A!
0-!
1.!
0?!
0E!
1T
1S
1R
0F!
0A!
14!
0/!
05!
0D!
13!
17
16
15
0i
1h
01!
1D!
0H!
0T
1U
1J!
03!
18
07
1m
1X
13
#700000
0)
0*
1#
0"
0!
1,
0%
00
1M
0K
0J
1D
0C
0B
0F
0Q
0s
0y
0w
0x
1|
0*!
0u
1%!
1)!
1,!
1&!
08!
0(!
0z
0+!
02!
19!
0@!
0G!
1/!
11!
1H!
07!
0)!
1-!
00!
0k
01!
06!
15!
0,!
0I!
0J!
0R
0m
0l
1i
0j
05
0X
0Y
1T
0S
04
03
17
06
#750000
1!
0,
10
0'
0+
0&
0.
1B
0M
0L
1Q
0O
0H
0G
0v
0{
0q
1s
0t
0%!
1w
1+!
1'!
1I!
11!
0K!
1!!
0;!
1"!
09!
0>!
0n
1l
0B!
0:!
0C!
1#!
1)!
1,!
0W
1Y
0-!
0.!
0&!
0+!
1;!
1@!
1G!
14
02
0H!
1C!
04!
0/!
05!
0i
0h
01!
1J!
0T
0U
1m
08
07
1X
13
#800000
0!
1'
1&
1"
0(
1C
0B
0I
1H
1G
1v
1{
0~
0w
1x
0@!
0G!
0$!
1&!
1z
0"!
1(!
1>!
1B!
1H!
0J!
0m
0X
03
#850000
1!
0'
0"
00
1.
1)
0#
0$
1/
0E
0D
0C
1B
0H
0Q
1P
1O
1J
1*!
1q
1r
0s
0{
1w
0x
0|
0}
0<!
0>!
0z
1"!
1@!
0!!
0&!
0;!
0I!
1J!
1K!
0,!
1A!
1G!
1n
1m
0l
0H!
10!
0C!
0'!
0A!
0B!
0D!
1W
1X
0Y
1F!
1E!
16!
0J!
0K!
04
13
12
0n
0m
1j
1H!
0W
0X
1S
1J!
1K!
03
02
16
1n
1m
1W
1X
13
12
#900000
0.
1#
1$
0&
1(
1*
0O
1E
1D
1I
0G
1K
1u
0v
1~
1|
1}
0q
11!
0K!
1;!
1!!
1$!
1<!
0(!
0)!
1?!
0n
1A!
00!
1D!
1'!
1.!
1C!
0W
14!
0E!
01!
06!
1B!
0C!
0D!
02
0j
1h
1E!
0F!
0S
1U
0H!
18
06
0J!
1K!
1n
0m
1W
0X
03
12
#950000
0$
1'
1"
0)
1,
1%
0E
1C
1H
1F
1M
0J
0*!
1%!
1y
1{
1x
0}
0<!
1>!
0!!
1&!
18!
1+!
0'!
1D!
0A!
1C!
1I!
1,!
1'!
1-!
0?!
0D!
1l
0I!
1/!
15!
0-!
10!
0E!
1J!
1Y
1m
1i
0l
16!
0/!
05!
11!
14
1X
1T
0Y
0i
1j
04
13
17
0T
1S
07
16
