Aula_16_10/simulation/qsim/projeto1.msim.vcd
$comment
	File created using the following command:
		vcd file projeto1.msim.vcd -direction
$end
$date
	Wed Oct 16 09:27:55 2024
$end
$version
	ModelSim Version 10.5b
$end
$timescale
	1ps
$end

$scope module projeto1_vhd_vec_tst $end
$var wire 1 ! a $end
$var wire 1 " b $end
$var wire 1 # s $end
$var wire 1 $ t $end
$var wire 1 % u $end
$var wire 1 & v $end
$var wire 1 ' w $end
$var wire 1 ( x $end
$var wire 1 ) y $end
$var wire 1 * z $end

$scope module i1 $end
$var wire 1 + gnd $end
$var wire 1 , vcc $end
$var wire 1 - unknown $end
$var wire 1 . devoe $end
$var wire 1 / devclrn $end
$var wire 1 0 devpor $end
$var wire 1 1 ww_devoe $end
$var wire 1 2 ww_devclrn $end
$var wire 1 3 ww_devpor $end
$var wire 1 4 ww_a $end
$var wire 1 5 ww_b $end
$var wire 1 6 ww_s $end
$var wire 1 7 ww_t $end
$var wire 1 8 ww_u $end
$var wire 1 9 ww_v $end
$var wire 1 : ww_w $end
$var wire 1 ; ww_x $end
$var wire 1 < ww_y $end
$var wire 1 = ww_z $end
$var wire 1 > \~QUARTUS_CREATED_ADC1~_CHSEL_bus\ [4] $end
$var wire 1 ? \~QUARTUS_CREATED_ADC1~_CHSEL_bus\ [3] $end
$var wire 1 @ \~QUARTUS_CREATED_ADC1~_CHSEL_bus\ [2] $end
$var wire 1 A \~QUARTUS_CREATED_ADC1~_CHSEL_bus\ [1] $end
$var wire 1 B \~QUARTUS_CREATED_ADC1~_CHSEL_bus\ [0] $end
$var wire 1 C \~QUARTUS_CREATED_ADC2~_CHSEL_bus\ [4] $end
$var wire 1 D \~QUARTUS_CREATED_ADC2~_CHSEL_bus\ [3] $end
$var wire 1 E \~QUARTUS_CREATED_ADC2~_CHSEL_bus\ [2] $end
$var wire 1 F \~QUARTUS_CREATED_ADC2~_CHSEL_bus\ [1] $end
$var wire 1 G \~QUARTUS_CREATED_ADC2~_CHSEL_bus\ [0] $end
$var wire 1 H \~QUARTUS_CREATED_GND~I_combout\ $end
$var wire 1 I \~QUARTUS_CREATED_UNVM~~busy\ $end
$var wire 1 J \~QUARTUS_CREATED_ADC1~~eoc\ $end
$var wire 1 K \~QUARTUS_CREATED_ADC2~~eoc\ $end
$var wire 1 L \s~output_o\ $end
$var wire 1 M \t~output_o\ $end
$var wire 1 N \u~output_o\ $end
$var wire 1 O \v~output_o\ $end
$var wire 1 P \w~output_o\ $end
$var wire 1 Q \x~output_o\ $end
$var wire 1 R \y~output_o\ $end
$var wire 1 S \z~output_o\ $end
$var wire 1 T \b~input_o\ $end
$var wire 1 U \a~input_o\ $end
$var wire 1 V \s~0_combout\ $end
$var wire 1 W \y~0_combout\ $end
$var wire 1 X \z~0_combout\ $end
$var wire 1 Y \ALT_INV_b~input_o\ $end
$var wire 1 Z \ALT_INV_a~input_o\ $end
$var wire 1 [ \ALT_INV_z~0_combout\ $end
$var wire 1 \ \ALT_INV_y~0_combout\ $end
$var wire 1 ] \ALT_INV_s~0_combout\ $end
$upscope $end
$upscope $end
$enddefinitions $end
#0
$dumpvars
0!
0"
1#
0$
1%
1&
1'
1(
0)
0*
0+
1,
x-
1.
1/
10
11
12
13
04
05
16
07
18
19
1:
1;
0<
0=
0H
zI
zJ
zK
1L
0M
1N
1O
1P
1Q
0R
0S
0T
0U
0V
0W
0X
1Y
1Z
1[
1\
1]
0>
0?
0@
0A
0B
0C
0D
0E
0F
0G
$end
#50000
1!
14
1U
0Z
1V
1W
0Q
0\
0]
1R
1M
0;
0L
0N
1<
17
0(
06
08
1)
1$
0#
0%
#80000
1"
15
1T
0Y
0V
1X
0P
0[
1]
1S
0M
0:
1L
0O
1=
07
0'
16
09
1*
0$
1#
0&
#100000
0!
04
0U
1Z
1V
0X
1Q
1[
0]
0S
1M
1;
0L
1O
0=
17
1(
06
19
0*
1$
0#
1&
#150000
1!
14
1U
0Z
0V
1X
0Q
0[
1]
1S
0M
0;
1L
0O
1=
07
0(
16
09
1*
0$
1#
0&
#160000
0"
05
0T
1Y
1V
0X
1P
1[
0]
0S
1M
1:
0L
1O
0=
17
1'
06
19
0*
1$
0#
1&
#200000
0!
04
0U
1Z
0V
0W
1Q
1\
1]
0R
0M
1;
1L
1N
0<
07
1(
16
18
0)
0$
1#
1%
#240000
1"
15
1T
0Y
1V
1W
0P
0\
0]
1R
1M
0:
0L
0N
1<
17
0'
06
08
1)
1$
0#
0%
#250000
1!
14
1U
0Z
0V
1X
0Q
0[
1]
1S
0M
0;
1L
0O
1=
07
0(
16
09
1*
0$
1#
0&
#300000
0!
04
0U
1Z
1V
0X
1Q
1[
0]
0S
1M
1;
0L
1O
0=
17
1(
06
19
0*
1$
0#
1&
#320000
0"
05
0T
1Y
0V
0W
1P
1\
1]
0R
0M
1:
1L
1N
0<
07
1'
16
18
0)
0$
1#
1%
#350000
1!
14
1U
0Z
1V
1W
0Q
0\
0]
1R
1M
0;
0L
0N
1<
17
0(
06
08
1)
1$
0#
0%
#400000
0!
1"
04
15
1T
0U
1Z
0Y
0P
1Q
0:
1;
0'
1(
#450000
1!
14
1U
0Z
0V
1X
0Q
0[
1]
1S
0M
0;
1L
0O
1=
07
0(
16
09
1*
0$
1#
0&
#480000
0"
05
0T
1Y
1V
0X
1P
1[
0]
0S
1M
1:
0L
1O
0=
17
1'
06
19
0*
1$
0#
1&
#500000
0!
04
0U
1Z
0V
0W
1Q
1\
1]
0R
0M
1;
1L
1N
0<
07
1(
16
18
0)
0$
1#
1%
#550000
1!
14
1U
0Z
1V
1W
0Q
0\
0]
1R
1M
0;
0L
0N
1<
17
0(
06
08
1)
1$
0#
0%
#560000
1"
15
1T
0Y
0V
1X
0P
0[
1]
1S
0M
0:
1L
0O
1=
07
0'
16
09
1*
0$
1#
0&
#600000
0!
04
0U
1Z
1V
0X
1Q
1[
0]
0S
1M
1;
0L
1O
0=
17
1(
06
19
0*
1$
0#
1&
#640000
0"
05
0T
1Y
0V
0W
1P
1\
1]
0R
0M
1:
1L
1N
0<
07
1'
16
18
0)
0$
1#
1%
#650000
1!
14
1U
0Z
1V
1W
0Q
0\
0]
1R
1M
0;
0L
0N
1<
17
0(
06
08
1)
1$
0#
0%
#700000
0!
04
0U
1Z
0V
0W
1Q
1\
1]
0R
0M
1;
1L
1N
0<
07
1(
16
18
0)
0$
1#
1%
#720000
1"
15
1T
0Y
1V
1W
0P
0\
0]
1R
1M
0:
0L
0N
1<
17
0'
06
08
1)
1$
0#
0%
#750000
1!
14
1U
0Z
0V
1X
0Q
0[
1]
1S
0M
0;
1L
0O
1=
07
0(
16
09
1*
0$
1#
0&
#800000
0!
0"
04
05
0T
0U
1Z
1Y
0W
0X
1P
1Q
1[
1\
0S
0R
1:
1;
1N
1O
0=
0<
1'
1(
18
19
0*
0)
1%
1&
#850000
1!
14
1U
0Z
1V
1W
0Q
0\
0]
1R
1M
0;
0L
0N
1<
17
0(
06
08
1)
1$
0#
0%
#880000
1"
15
1T
0Y
0V
1X
0P
0[
1]
1S
0M
0:
1L
0O
1=
07
0'
16
09
1*
0$
1#
0&
#900000
0!
04
0U
1Z
1V
0X
1Q
1[
0]
0S
1M
1;
0L
1O
0=
17
1(
06
19
0*
1$
0#
1&
#950000
1!
14
1U
0Z
0V
1X
0Q
0[
1]
1S
0M
0;
1L
0O
1=
07
0(
16
09
1*
0$
1#
0&
#960000
0"
05
0T
1Y
1V
0X
1P
1[
0]
0S
1M
1:
0L
1O
0=
17
1'
06
19
0*
1$
0#
1&
