Relatorio2/simulation/qsim/projeto2.msim.vcd
$comment
	File created using the following command:
		vcd file projeto2.msim.vcd -direction
$end
$date
	Fri Oct 25 08:57:13 2024
$end
$version
	ModelSim Version 10.5b
$end
$timescale
	1ps
$end

$scope module projeto2_vhd_vec_tst $end
$var wire 1 ! a $end
$var wire 1 " b $end
$var wire 1 # c $end
$var wire 1 $ d $end
$var wire 1 % z $end

$scope module i1 $end
$var wire 1 & gnd $end
$var wire 1 ' vcc $end
$var wire 1 ( unknown $end
$var wire 1 ) devoe $end
$var wire 1 * devclrn $end
$var wire 1 + devpor $end
$var wire 1 , ww_devoe $end
$var wire 1 - ww_devclrn $end
$var wire 1 . ww_devpor $end
$var wire 1 / ww_a $end
$var wire 1 0 ww_b $end
$var wire 1 1 ww_c $end
$var wire 1 2 ww_d $end
$var wire 1 3 ww_z $end
$var wire 1 4 \~QUARTUS_CREATED_ADC1~_CHSEL_bus\ [4] $end
$var wire 1 5 \~QUARTUS_CREATED_ADC1~_CHSEL_bus\ [3] $end
$var wire 1 6 \~QUARTUS_CREATED_ADC1~_CHSEL_bus\ [2] $end
$var wire 1 7 \~QUARTUS_CREATED_ADC1~_CHSEL_bus\ [1] $end
$var wire 1 8 \~QUARTUS_CREATED_ADC1~_CHSEL_bus\ [0] $end
$var wire 1 9 \~QUARTUS_CREATED_ADC2~_CHSEL_bus\ [4] $end
$var wire 1 : \~QUARTUS_CREATED_ADC2~_CHSEL_bus\ [3] $end
$var wire 1 ; \~QUARTUS_CREATED_ADC2~_CHSEL_bus\ [2] $end
$var wire 1 < \~QUARTUS_CREATED_ADC2~_CHSEL_bus\ [1] $end
$var wire 1 = \~QUARTUS_CREATED_ADC2~_CHSEL_bus\ [0] $end
$var wire 1 > \~QUARTUS_CREATED_GND~I_combout\ $end
$var wire 1 ? \~QUARTUS_CREATED_UNVM~~busy\ $end
$var wire 1 @ \~QUARTUS_CREATED_ADC1~~eoc\ $end
$var wire 1 A \~QUARTUS_CREATED_ADC2~~eoc\ $end
$var wire 1 B \z~output_o\ $end
$var wire 1 C \b~input_o\ $end
$var wire 1 D \c~input_o\ $end
$var wire 1 E \a~input_o\ $end
$var wire 1 F \d~input_o\ $end
$var wire 1 G \z~0_combout\ $end
$upscope $end
$upscope $end
$enddefinitions $end
#0
$dumpvars
0!
0"
0#
0$
1%
0&
1'
x(
1)
1*
1+
1,
1-
1.
0/
00
01
02
13
0>
z?
z@
zA
1B
0C
0D
0E
0F
1G
04
05
06
07
08
09
0:
0;
0<
0=
$end
#10000
1"
10
1C
#15000
1#
11
1D
#20000
0"
00
0C
#25000
1$
12
1F
#30000
1"
10
1C
0G
0B
03
0%
#45000
0#
01
0D
1G
1B
13
1%
#50000
0"
00
0C
#70000
1"
10
1C
#75000
1#
11
1D
0G
0B
03
0%
#80000
1!
1/
1E
#90000
0"
00
0C
#100000
1"
0!
0$
10
0/
02
0F
0E
1C
1G
1B
13
1%
#105000
0#
01
0D
#110000
0"
00
0C
#120000
1"
1!
10
1/
1E
1C
#130000
0"
00
0C
#135000
1#
11
1D
#150000
1"
10
1C
0G
0B
03
0%
#160000
0"
0!
00
0/
0E
0C
1G
1B
13
1%
#180000
1"
1!
10
1/
1E
1C
0G
0B
03
0%
#190000
0"
00
0C
1G
1B
13
1%
#195000
0#
01
0D
#200000
1"
1$
10
12
1F
1C
0G
0B
03
0%
#220000
0"
00
0C
1G
1B
13
1%
#225000
0$
1#
02
11
1D
0F
#230000
1"
10
1C
0G
0B
03
0%
#250000
1$
12
1F
#255000
0#
01
0D
#260000
0"
00
0C
1G
1B
13
1%
#270000
1"
1#
10
11
1D
1C
0G
0B
03
0%
#280000
0"
00
0C
#285000
0#
01
0D
1G
1B
13
1%
#300000
1#
1"
0!
11
10
0/
0E
1C
1D
0G
0B
03
0%
#320000
1!
1/
1E
#330000
0#
01
0D
#340000
0!
0/
0E
1G
1B
13
1%
#350000
0$
02
0F
#370000
0"
00
0C
#380000
1"
10
1C
#405000
1#
11
1D
#420000
0"
00
0C
#430000
1"
10
1C
#435000
0#
01
0D
#440000
0"
1!
00
1/
1E
0C
#465000
1#
11
1D
#480000
0#
0!
01
0/
0E
0D
#495000
1#
11
1D
#500000
1"
10
1C
#510000
0#
01
0D
#520000
1!
1/
1E
#525000
1$
12
1F
0G
0B
03
0%
#540000
0!
0/
0E
1G
1B
13
1%
#550000
0$
0"
02
00
0C
0F
#560000
1!
1/
1E
#570000
1"
10
1C
#575000
1$
12
1F
0G
0B
03
0%
#580000
0"
00
0C
1G
1B
13
1%
#610000
1"
10
1C
0G
0B
03
0%
#615000
1#
11
1D
#620000
0"
0!
00
0/
0E
0C
1G
1B
13
1%
#630000
0#
01
0D
#640000
1!
1/
1E
#650000
1"
10
1C
0G
0B
03
0%
#660000
0"
0!
1#
00
0/
11
1D
0E
0C
1G
1B
13
1%
#670000
1"
10
1C
0G
0B
03
0%
#675000
0#
01
0D
1G
1B
13
1%
#700000
0$
02
0F
#720000
1#
1!
11
1/
1E
1D
0G
0B
03
0%
#730000
0"
00
0C
1G
1B
13
1%
#740000
1"
10
1C
0G
0B
03
0%
#750000
0#
1$
01
12
1F
0D
#760000
0!
0/
0E
1G
1B
13
1%
#775000
0$
02
0F
#780000
1!
1#
0"
1/
11
00
0C
1D
1E
#790000
1"
10
1C
0G
0B
03
0%
#800000
0"
00
0C
1G
1B
13
1%
#810000
0#
01
0D
#825000
1#
1$
11
12
1F
1D
0G
0B
03
0%
#830000
1"
10
1C
#840000
0#
01
0D
#850000
0"
00
0C
1G
1B
13
1%
#880000
1"
0!
10
0/
0E
1C
#885000
1#
11
1D
0G
0B
03
0%
#890000
0"
00
0C
1G
1B
13
1%
#900000
1!
1/
1E
0G
0B
03
0%
#910000
1"
10
1C
#920000
0!
0/
0E
#945000
0#
01
0D
1G
1B
13
1%
#950000
0"
00
0C
#960000
1"
1#
10
11
1D
1C
0G
0B
03
0%
#970000
0"
00
0C
1G
1B
13
1%
#975000
0$
02
0F
#990000
1"
10
1C
